{
    "statusCode": 200,
    "message": "操作成功！",
    "data": {
        "content": [
            {
                "id": "lvsy7adv10000007zbe4",
                "scope": null,
                "creationtime": 1522751573000,
                "modifiedtime": 1522751573000,
                "question": "412",
                "answer": "http://hr.yonyoucloud.com/portal/index-zh_CN.html#/sidebarHR040006",
                "ishotsport": true,
                "label": "",
                "selfpraise": null,
                "classId": "lvsy7adv10000001urke",
                "className": "变北京人",
                "linkFlag": true,
                "browsecount": 34,
                "praisecount": 0,
                "categoryname": null,
                "creatorname": "宋一",
                "modifiername": "宋一",
                "tenantId": null
            },
            {
                "id": "lvsy7adv10000007zf87",
                "scope": null,
                "creationtime": 1522751561000,
                "modifiedtime": 1522751561000,
                "question": "入职",
                "answer": "<p> <a href=\"http://hr.yonyoucloud.com/portal/index-zh_CN.html#/sidebarHR040006\">http://hr.yonyoucloud.com/portal/index-zh_CN.html#/sidebarHR040006</a> </p><p><br/></p><p><br/></p><p><a href=\"http://hr.yonyoucloud.com/portal/index-zh_CN.html#/sidebarHR040006\">http://hr.yonyoucloud.com/portal/index-zh_CN.html#/sidebarHR040006</a> </p><p><br/></p><p><br/></p>",
                "ishotsport": true,
                "label": "",
                "selfpraise": null,
                "classId": "lvsy7adv10000001urkf",
                "className": "考勤休假",
                "linkFlag": false,
                "browsecount": 42,
                "praisecount": 1,
                "categoryname": null,
                "creatorname": "宋一",
                "modifiername": "宋一",
                "tenantId": null
            },
            {
                "id": "lvsy7adv1000000665oq",
                "scope": null,
                "creationtime": 1520216224000,
                "modifiedtime": 1520910296000,
                "question": "9870987",
                "answer": "<p>ddsfsdfasdfsdsdfsad</p>",
                "ishotsport": true,
                "label": "tttt",
                "selfpraise": null,
                "classId": "lvsy7adv10000001urke",
                "className": "变北京人",
                "linkFlag": false,
                "browsecount": 50,
                "praisecount": 1,
                "categoryname": null,
                "creatorname": null,
                "modifiername": "张op",
                "tenantId": null
            },
            {
                "id": "lvsy7adv10000003dbde",
                "scope": null,
                "creationtime": 1515830040000,
                "modifiedtime": 1515830040000,
                "question": "无固定期限合同",
                "answer": "",
                "ishotsport": true,
                "label": "",
                "selfpraise": null,
                "classId": "lvsy7adv10000001urka",
                "className": null,
                "linkFlag": false,
                "browsecount": 66,
                "praisecount": 4,
                "categoryname": null,
                "creatorname": null,
                "modifiername": null,
                "tenantId": null
            },
            {
                "id": "lvsy7adv10000001url9",
                "scope": null,
                "creationtime": 1511488249000,
                "modifiedtime": 1511517467000,
                "question": "8、在京无房租住公租房",
                "answer": "http://v.xiumi.us/board/v5/32xsX/55877930",
                "ishotsport": true,
                "label": "",
                "selfpraise": null,
                "classId": "lvsy7adv10000001urkh",
                "className": "娶公积金",
                "linkFlag": true,
                "browsecount": 112,
                "praisecount": 1,
                "categoryname": null,
                "creatorname": null,
                "modifiername": null,
                "tenantId": null
            }
        ],
        "pageable": {
            "sort": null,
            "pageSize": 5,
            "pageNumber": 0,
            "offset": 0
        },
        "totalPages": 4,
        "totalElements": 20,
        "last": false,
        "numberOfElements": 5,
        "sort": null,
        "first": true,
        "size": 5,
        "number": 0
    }
}